1, 0, 1
2, 1, 1
3, 1, 0
4, 1, 2
5, 1, 0
6, 1, 3
7, 1, 0
8, 1, 3
9, 1, 0
10, 1, 3
11, 1, 0
12, 2, 6
13, 1, 0
14, 1, 3
15, 2, 0
16, 1, 4
17, 1, 0
18, 1, 5
19, 1, 0
20, 2, 6
21, 2, 0
22, 1, 3
23, 1, 0
24, 3, 9
25, 1, 0
26, 1, 3
27, 1, 0
28, 2, 6
29, 1, 0
30, 4, 9
31, 1, 0
32, 1, 5
33, 2, 0
34, 1, 3
35, 2, 0
36, 3, 10
37, 1, 0
38, 1, 3
39, 2, 0
40, 3, 9
41, 1, 0
42, 4, 9
43, 1, 0
44, 2, 6
45, 3, 0
46, 1, 3
47, 1, 0
48, 4, 12
49, 1, 0
50, 1, 5
51, 2, 0
52, 2, 6
53, 1, 0
54, 1, 7
55, 2, 0
56, 3, 9
57, 2, 0
58, 1, 3
59, 1, 0
60, 9, 18
61, 1, 0
62, 1, 3
63, 3, 0
64, 1, 6
65, 2, 0
66, 4, 9
67, 1, 0
68, 2, 6
69, 2, 0
70, 4, 9
71, 1, 0
72, 5, 15
73, 1, 0
74, 1, 3
75, 3, 0
76, 2, 6
77, 2, 0
78, 4, 9
79, 1, 0
80, 4, 12
81, 1, 0
82, 1, 3
83, 1, 0
84, 9, 18
85, 2, 0
86, 1, 3
87, 2, 0
88, 3, 9
89, 1, 0
90, 7, 15
91, 2, 0
92, 2, 6
93, 2, 0
94, 1, 3
95, 2, 0
96, 5, 15
97, 1, 0
98, 1, 5
99, 3, 0
100, 3, 10
101, 1, 0
102, 4, 9
103, 1, 0
104, 3, 9
105, 7, 0
106, 1, 3
107, 1, 0
108, 4, 14
109, 1, 0
110, 4, 9
111, 2, 0
112, 4, 12
113, 1, 0
114, 4, 9
115, 2, 0
116, 2, 6
117, 3, 0
118, 1, 3
119, 2, 0
120, 14, 27
121, 1, 0
122, 1, 3
123, 2, 0
124, 2, 6
125, 1, 0
126, 7, 15
127, 1, 0
128, 1, 7
129, 2, 0
130, 4, 9
131, 1, 0
132, 9, 18
133, 2, 0
134, 1, 3
135, 4, 0
136, 3, 9
137, 1, 0
138, 4, 9
139, 1, 0
140, 9, 18
141, 2, 0
142, 1, 3
143, 2, 0
144, 7, 20
145, 2, 0
146, 1, 3
147, 3, 0
148, 2, 6
149, 1, 0
150, 7, 15
151, 1, 0
152, 3, 9
153, 3, 0
154, 4, 9
155, 2, 0
156, 9, 18
157, 1, 0
158, 1, 3
159, 2, 0
160, 5, 15
161, 2, 0
162, 1, 9
163, 1, 0
164, 2, 6
165, 7, 0
166, 1, 3
167, 1, 0
168, 14, 27
169, 1, 0
170, 4, 9
171, 3, 0
172, 2, 6
173, 1, 0
174, 4, 9
175, 3, 0
176, 4, 12
177, 2, 0
178, 1, 3
179, 1, 0
180, 16, 30
181, 1, 0
182, 4, 9
183, 2, 0
184, 3, 9
185, 2, 0
186, 4, 9
187, 2, 0
188, 2, 6
189, 4, 0
190, 4, 9
191, 1, 0
192, 6, 18
193, 1, 0
194, 1, 3
195, 7, 0
196, 3, 10
197, 1, 0
198, 7, 15
199, 1, 0
200, 5, 15
201, 2, 0
202, 1, 3
203, 2, 0
204, 9, 18
205, 2, 0
206, 1, 3
207, 3, 0
208, 4, 12
209, 2, 0
210, 19, 27
211, 1, 0
212, 2, 6
213, 2, 0
214, 1, 3
215, 2, 0
216, 7, 21
217, 2, 0
218, 1, 3
219, 2, 0
220, 9, 18
221, 2, 0
222, 4, 9
223, 1, 0
224, 5, 15
225, 5, 0
226, 1, 3
227, 1, 0
228, 9, 18
229, 1, 0
230, 4, 9
231, 7, 0
232, 3, 9
233, 1, 0
234, 7, 15
235, 2, 0
236, 2, 6
237, 2, 0
238, 4, 9
239, 1, 0
240, 19, 36
241, 1, 0
242, 1, 5
243, 1, 0
244, 2, 6
245, 3, 0
246, 4, 9
247, 2, 0
248, 3, 9
249, 2, 0
250, 1, 7
251, 1, 0
252, 16, 30
253, 2, 0
254, 1, 3
255, 7, 0
256, 1, 8
257, 1, 0
258, 4, 9
259, 2, 0
260, 9, 18
261, 3, 0
262, 1, 3
263, 1, 0
264, 14, 27
265, 2, 0
266, 4, 9
267, 2, 0
268, 2, 6
269, 1, 0
270, 10, 21
271, 1, 0
272, 4, 12
273, 7, 0
274, 1, 3
275, 3, 0
276, 9, 18
277, 1, 0
278, 1, 3
279, 3, 0
280, 14, 27
281, 1, 0
282, 4, 9
283, 1, 0
284, 2, 6
285, 7, 0
286, 4, 9
287, 2, 0
288, 9, 25
289, 1, 0
290, 4, 9
291, 2, 0
292, 2, 6
293, 1, 0
294, 7, 15
295, 2, 0
296, 3, 9
297, 4, 0
298, 1, 3
299, 2, 0
300, 16, 30
301, 2, 0
302, 1, 3
303, 2, 0
304, 4, 12
305, 2, 0
306, 7, 15
307, 1, 0
308, 9, 18
309, 2, 0
310, 4, 9
311, 1, 0
312, 14, 27
313, 1, 0
314, 1, 3
315, 12, 0
316, 2, 6
317, 1, 0
318, 4, 9
319, 2, 0
320, 6, 18
321, 2, 0
322, 4, 9
323, 2, 0
324, 5, 18
325, 3, 0
326, 1, 3
327, 2, 0
328, 3, 9
329, 2, 0
330, 19, 27
331, 1, 0
332, 2, 6
333, 3, 0
334, 1, 3
335, 2, 0
336, 19, 36
337, 1, 0
338, 1, 5
339, 2, 0
340, 9, 18
341, 2, 0
342, 7, 15
343, 1, 0
344, 3, 9
345, 7, 0
346, 1, 3
347, 1, 0
348, 9, 18
349, 1, 0
350, 7, 15
351, 4, 0
352, 5, 15
353, 1, 0
354, 4, 9
355, 2, 0
356, 2, 6
357, 7, 0
358, 1, 3
359, 1, 0
360, 25, 45
361, 1, 0
362, 1, 3
363, 3, 0
364, 9, 18
365, 2, 0
366, 4, 9
367, 1, 0
368, 4, 12
369, 3, 0
370, 4, 9
371, 2, 0
372, 9, 18
373, 1, 0
374, 4, 9
375, 4, 0
376, 3, 9
377, 2, 0
378, 10, 21
379, 1, 0
380, 9, 18
381, 2, 0
382, 1, 3
383, 1, 0
384, 7, 21
385, 7, 0
386, 1, 3
387, 3, 0
388, 2, 6
389, 1, 0
390, 19, 27
391, 2, 0
392, 5, 15
393, 2, 0
394, 1, 3
395, 2, 0
396, 16, 30
397, 1, 0
398, 1, 3
399, 7, 0
400, 7, 20
401, 1, 0
402, 4, 9
403, 2, 0
404, 2, 6
405, 5, 0
406, 4, 9
407, 2, 0
408, 14, 27
409, 1, 0
410, 4, 9
411, 2, 0
412, 2, 6
413, 2, 0
414, 7, 15
415, 2, 0
416, 5, 15
417, 2, 0
418, 4, 9
419, 1, 0
420, 38, 54
421, 1, 0
422, 1, 3
423, 3, 0
424, 3, 9
425, 3, 0
426, 4, 9
427, 2, 0
428, 2, 6
429, 7, 0
430, 4, 9
431, 1, 0
432, 10, 28
433, 1, 0
434, 4, 9
435, 7, 0
436, 2, 6
437, 2, 0
438, 4, 9
439, 1, 0
440, 14, 27
441, 5, 0
442, 4, 9
443, 1, 0
444, 9, 18
445, 2, 0
446, 1, 3
447, 2, 0
448, 6, 18
449, 1, 0
450, 13, 25
451, 2, 0
452, 2, 6
453, 2, 0
454, 1, 3
455, 7, 0
456, 14, 27
457, 1, 0
458, 1, 3
459, 4, 0
460, 9, 18
461, 1, 0
462, 19, 27
463, 1, 0
464, 4, 12
465, 7, 0
466, 1, 3
467, 1, 0
468, 16, 30
469, 2, 0
470, 4, 9
471, 2, 0
472, 3, 9
473, 2, 0
474, 4, 9
475, 3, 0
476, 9, 18
477, 3, 0
478, 1, 3
479, 1, 0
480, 24, 45
481, 2, 0
482, 1, 3
483, 7, 0
484, 3, 10
485, 2, 0
486, 1, 11
487, 1, 0
488, 3, 9
489, 2, 0
490, 7, 15
491, 1, 0
492, 9, 18
493, 2, 0
494, 4, 9
495, 12, 0
496, 4, 12
497, 2, 0
498, 4, 9
499, 1, 0
