9.645952e-10 -3.0434588e-10 3.3371828e-10
-6.7046946e-09 -6.5825123e-09 7.719802e-09
1.7978914e-08 -2.4659784e-08 1.831875e-08
-9.538116e-09 -1.8603442e-08 -9.777272e-10
1.0280081e-08 -4.361709e-09 2.3158235e-09
2.784509e-08 1.400783e-08 -3.2212633e-08
-8.939921e-09 1.5241183e-08 1.9854332e-09
7.4217335e-09 1.2087047e-08 4.5277734e-08
1.8818188e-08 -6.023279e-09 -1.4098504e-08
-2.6945585e-08 -1.2508836e-08 4.125539e-08
-1.2450622e-08 5.9554544e-09 -2.07512e-09
6.8159753e-09 1.5891786e-08 -8.556438e-09
-2.9542058e-10 -2.7244933e-08 -2.6307045e-09
-3.0347998e-08 -1.3519585e-10 3.294982e-08
1.4043994e-08 -1.30586475e-08 2.7751277e-09
-1.3766742e-08 -2.8417233e-08 -4.5147317e-08
-1.6542416e-09 -1.2853245e-08 1.6206817e-08
2.1782437e-08 -6.0965366e-09 -8.241123e-09
1.4481114e-08 3.2585945e-08 1.9018799e-08
-3.726294e-09 -4.9768325e-08 -3.1664246e-08
3.921896e-08 7.392744e-10 3.2135578e-08
-6.4248376e-09 -4.7927076e-09 -1.4509309e-09
-2.3043503e-08 1.2230952e-08 -2.1265185e-08
-6.571651e-09 -2.0373966e-08 -1.4995296e-08
1.3668702e-08 6.6312955e-11 2.84241e-08
1.42230725e-08 -2.0511205e-08 -1.9876733e-08
8.722704e-09 -1.0689382e-09 4.476848e-09
6.181942e-09 -1.2419374e-08 -1.4346037e-08
7.1712285e-09 1.2931756e-08 6.1559735e-09
1.1693737e-08 4.8705577e-09 -1.3557768e-09
7.967148e-09 2.3672146e-09 3.9261567e-09
4.7991335e-09 1.8765576e-09 -2.4145237e-09
7.3675617e-09 -1.7427002e-09 1.2268193e-08
1.8356761e-08 -1.6431855e-08 6.574097e-09
2.5270062e-08 -9.8017425e-09 1.9411253e-08
3.3438106e-08 2.303582e-08 -2.5969e-08
-4.021957e-08 -4.641159e-08 -1.0580248e-08
-2.21774e-08 6.7458124e-09 4.7397688e-08
9.4195265e-09 -1.780085e-08 -7.756287e-09
-3.916199e-09 5.070693e-09 -1.4266433e-08
-1.8949358e-09 -1.7360685e-08 4.24484e-09
-7.782219e-09 1.6148043e-09 -1.7163639e-09
-1.0112718e-08 -3.341287e-08 -1.2774386e-09
2.0152584e-08 6.4403203e-09 -1.0287778e-08
-2.3993408e-08 8.352329e-09 3.316636e-08
2.5049317e-08 -4.3748248e-08 -2.6693947e-08
-4.328512e-08 1.818048e-10 -8.420082e-09
4.646278e-08 2.4856572e-08 1.5177712e-08
2.6820567e-08 1.2155112e-09 4.6133217e-09
1.07463025e-08 -5.8399014e-08 -1.1349217e-08
-1.3990459e-08 2.5137005e-08 1.9973553e-08
1.8446409e-08 -1.18677015e-08 -1.7522963e-08
2.1700147e-08 -4.2031488e-08 -5.5792306e-08
-1.0487483e-08 4.844039e-09 2.6390607e-09
-6.5448784e-09 1.5225927e-08 4.2766143e-08
5.0018677e-08 -1.14564935e-08 3.715419e-10
-5.011824e-09 -3.4379481e-09 -3.2433377e-08
-9.1296375e-09 -4.989609e-08 3.6973584e-09
3.0452911e-09 -5.5860094e-09 1.1318702e-08
2.8096359e-08 4.9455373e-09 2.9677821e-08
4.9348383e-09 -1.0089485e-08 4.0346895e-09
-5.4711666e-09 -3.5927705e-11 1.8903522e-08
-4.1638555e-09 -2.0393433e-08 -2.1277685e-08
-9.227439e-09 9.216366e-10 1.8365375e-08
-1.0824361e-08 -1.1615802e-08 1.867825e-09
1.0470812e-08 3.130588e-08 -3.6471796e-08
-9.842469e-09 -3.2635374e-08 4.356697e-09
-3.0043974e-08 2.0310717e-08 7.1308705e-08
5.0983484e-09 -1.27334445e-08 -9.3793835e-09
-1.2532228e-08 -2.1526885e-08 1.581203e-08
-4.4099416e-08 7.027521e-09 -3.8857515e-08
4.187058e-08 -2.1011459e-10 3.320342e-08
-1.0672694e-08 2.0104196e-08 1.0967273e-08
-1.9715442e-08 -1.5406064e-08 4.3369425e-08
-9.031557e-09 -1.9103394e-08 1.9396724e-09
1.9826807e-10 5.5447106e-08 3.1072418e-08
-5.343522e-09 2.4394435e-08 -2.5076838e-08
-4.010232e-08 -1.616149e-08 2.7309312e-08
-2.6801437e-09 -7.92806e-09 1.00815e-08
-1.6337989e-08 -3.7250935e-08 3.3025312e-08
-4.5294133e-08 -1.7676681e-08 8.404744e-09
-6.8803246e-08 -1.3483463e-08 -2.1907466e-08
5.045407e-08 2.7360478e-08 1.37330325e-08
-2.1547695e-08 -3.3351174e-08 4.1257266e-08
-6.0480524e-08 -3.0593455e-08 8.608847e-09
2.54301e-08 1.8251596e-09 -1.1318933e-08
-2.3520972e-08 -1.4813766e-08 -2.3778405e-08
1.1126362e-09 5.4544103e-08 3.999518e-08
7.207108e-09 5.0879754e-09 2.2104164e-08
-4.9594266e-08 -4.1354316e-08 1.9174253e-08
-1.3400163e-08 -3.0438148e-08 -3.4377113e-08
-1.9845305e-09 -5.0648634e-08 -1.0843851e-08
-2.802291e-08 -2.4522619e-08 2.1022062e-08
-8.396489e-09 -2.4213758e-08 2.882306e-08
-6.8504304e-09 -4.1232484e-09 -1.7438984e-09
-8.07874e-10 -4.8802864e-09 1.0101001e-08
-1.16659225e-08 4.98747e-09 -9.735327e-09
-3.7303636e-08 8.229232e-09 2.1473284e-08
-6.199424e-08 -2.6464402e-08 4.27252e-08
-1.9674774e-08 1.8324023e-08 -9.948629e-09
2.0899032e-08 1.03013305e-08 1.2559803e-08
4.0773365e-08 -7.7341056e-10 -4.8672952e-08
3.4367247e-08 6.579448e-09 -2.055599e-08
-1.7634036e-08 -9.308476e-09 4.9175387e-08
-1.0581244e-08 5.6785674e-09 3.828316e-08
1.8290818e-08 3.4607712e-08 -3.784729e-09
3.258105e-08 1.5480802e-08 1.6800438e-08
2.5753051e-08 2.091152e-09 -3.7205353e-08
-3.0629913e-08 -3.9218214e-08 -2.5860325e-08
2.1107532e-08 -1.2031215e-08 3.1118653e-08
5.1135455e-08 3.2657724e-08 4.500525e-08
3.2656764e-08 5.274979e-08 -2.8669923e-08
-1.2873667e-08 -1.8891647e-08 -3.306008e-08
1.13022395e-07 -1.2066535e-08 4.794867e-08
-3.215126e-08 -4.2911864e-08 -3.22824e-08
2.2469013e-08 7.3822704e-08 1.3473947e-08
6.731223e-08 1.6672052e-08 -6.486864e-08
3.4488842e-08 -2.2276335e-08 2.6681281e-08
-1.719502e-08 1.6184318e-08 1.6777182e-08
3.255134e-08 1.7456259e-10 -5.7317897e-09
-3.2694626e-08 -3.6018765e-08 -1.788776e-08
2.0701155e-08 -2.1080933e-08 1.9684116e-08
2.7265854e-08 2.4779549e-08 1.654352e-08
2.4636057e-08 6.6530954e-09 8.774377e-09
3.2483083e-10 -1.2692373e-08 3.694474e-08
1.9599614e-08 2.4237972e-08 -1.4216864e-08
4.8578475e-09 -2.8692405e-08 5.0836846e-09
9.73489e-09 -3.822192e-10 1.3710759e-08
-1.1049578e-08 -1.3628602e-08 1.6207856e-08
3.0559843e-08 -1.761875e-08 -3.2719027e-09
-1.0606296e-08 1.2110261e-08 1.930391e-09
8.551465e-09 -3.7818445e-08 -1.917224e-08
-9.429577e-09 1.9622469e-08 -6.296095e-09
-1.42317145e-08 -3.6010803e-09 7.137608e-08
-1.6320516e-08 4.579854e-09 3.8303558e-08
-3.445137e-08 -3.3621507e-08 -3.845743e-08
-3.445094e-08 -3.7117962e-09 -3.505536e-08
1.1538534e-08 8.051347e-09 6.425136e-09
-2.9671149e-08 -6.5585066e-09 2.4787491e-08
-2.9471533e-08 2.270329e-08 5.8773177e-09
8.708995e-09 6.7079635e-09 -6.6309966e-08
3.2509142e-08 -5.9335157e-08 3.7086099e-09
-3.024525e-09 -1.4878749e-08 3.5445247e-08
-2.0562418e-08 3.958121e-09 -3.5361555e-08
1.7727917e-08 5.3217177e-09 -3.0341507e-08
2.4371626e-08 4.4549813e-09 -3.0604856e-08
-1.2645171e-08 -2.7892192e-08 4.3851024e-08
-3.408939e-09 2.3172603e-08 4.0343657e-08
5.400312e-08 1.5607938e-08 4.6314952e-08
-8.639741e-09 8.687053e-09 -2.9605298e-08
2.7080892e-08 1.6087194e-08 -3.8114084e-08
-3.1168759e-09 -3.809259e-08 -4.6124956e-08
-3.105908e-08 -1.7314347e-08 2.177694e-08
1.321935e-08 5.6592864e-08 1.5070682e-08
1.5122902e-08 1.7882561e-08 1.9602875e-09
-3.5059067e-10 -3.569218e-08 -5.008606e-09
-2.0745645e-09 8.47965e-09 -1.1910163e-08
-7.605086e-09 2.6548154e-08 1.0755352e-09
1.6154194e-09 -1.6619383e-08 1.0875737e-08
-2.0706687e-09 6.411434e-09 4.315342e-09
-1.8857257e-08 2.439366e-08 -1.1228824e-08
-2.4956028e-09 -5.2745676e-08 1.6432647e-08
2.5402327e-08 1.0898818e-08 -9.719869e-09
-1.5684895e-08 2.2511319e-08 -5.1741573e-08
3.885087e-09 -2.2602825e-08 1.7942316e-08
7.501677e-08 -6.9960585e-08 3.244262e-08
3.5336276e-09 1.2681086e-08 1.301372e-08
2.393568e-08 3.0392354e-08 3.6028363e-09
1.1649313e-09 7.498886e-09 -4.5181547e-08
1.0243801e-08 -1.3613794e-08 4.7696854e-08
1.4843291e-09 -2.2584313e-08 -2.3983844e-08
1.80431e-08 5.3431233e-08 1.4382628e-10
1.5345352e-09 7.509316e-09 -6.418355e-08
6.04962e-08 -2.5554112e-08 3.792443e-08
-6.837139e-09 -1.439429e-08 2.2262956e-08
-7.29578e-09 4.7090012e-08 6.629857e-08
-1.606462e-08 -1.208436e-08 -6.615047e-08
-7.5223383e-10 -1.3865071e-08 4.2960643e-08
3.930243e-08 4.115644e-09 -1.8101414e-08
1.05284315e-08 -2.0461483e-08 -2.8973474e-08
-2.7274202e-08 -3.535239e-08 5.6208873e-09
-1.8200051e-08 -1.3514031e-08 5.3356295e-08
-2.8414085e-08 1.8664412e-08 -9.113058e-08
3.6647975e-08 -1.7855946e-08 2.6125457e-08
5.6347403e-08 2.2273365e-08 4.0998252e-08
-3.763532e-08 -3.2786218e-08 -1.1505681e-08
-1.5478527e-08 -1.4622826e-08 -2.2733126e-08
1.6337468e-08 1.8615558e-09 3.8786443e-08
7.845271e-10 -1.5262843e-08 2.9740819e-09
-5.941704e-09 6.0058376e-09 7.738121e-09
7.2154993e-09 -8.530537e-09 -1.28883695e-08
3.6616477e-10 -4.1362505e-09 -4.144689e-09
1.20130785e-08 -3.5871488e-09 5.311591e-09
-4.0266833e-08 -2.2695394e-08 -1.0202182e-08
-9.202953e-09 -1.6851209e-09 1.920277e-08
-1.6698101e-09 -1.2352537e-08 2.5246077e-08
2.1632939e-08 5.986669e-09 -5.0145406e-08
1.641688e-08 -2.3792179e-08 -3.96392e-08
1.4292434e-10 4.5121213e-09 -3.8324917e-09
2.018886e-08 -2.4070157e-08 4.9460617e-08
2.3478869e-08 -1.0908588e-08 2.732407e-08
3.813766e-09 -6.247059e-09 -1.8323917e-08
-2.0190182e-08 -1.1364298e-08 -7.733176e-09
-1.0576353e-08 4.586669e-09 1.6036312e-08
1.7202884e-09 -1.5212072e-08 -2.4373712e-08
-2.7915865e-09 -8.586254e-08 -2.8086995e-09
-2.059923e-08 -2.0676811e-08 1.1525601e-08
7.945595e-09 -2.2488114e-08 2.3086484e-08
1.1750937e-08 8.2844354e-10 3.3107035e-08
-9.117862e-09 1.878635e-10 -2.7641066e-08
-4.4939487e-08 -9.631597e-09 -1.8364842e-08
1.4047382e-08 3.0703383e-08 7.4278237e-09
-1.9519877e-08 -5.771054e-09 1.5564456e-08
-9.999681e-10 8.343009e-09 -1.8659268e-08
-2.126845e-08 -1.6243597e-08 2.0580122e-08
3.6987686e-08 -3.4201992e-08 -1.0141988e-08
-6.253461e-08 3.6098758e-08 1.5727737e-08
-4.1032422e-08 -2.2622961e-08 -1.3783932e-08
2.8063657e-10 6.558672e-09 -5.8932854e-09
7.454724e-09 1.1627534e-08 -2.2271678e-08
-1.06965965e-08 -8.8800234e-10 -7.5863116e-10
-1.1822807e-08 2.1464096e-08 -5.5232023e-09
-3.7221621e-09 8.348201e-09 8.816662e-09
-1.0467718e-08 -2.2692017e-09 7.0034883e-10
-3.562786e-08 -1.9842538e-08 -9.403708e-09
3.6572224e-08 -1.2314584e-08 -1.6038133e-08
6.2545085e-09 5.2566564e-09 8.711143e-09
5.188111e-08 2.3666043e-08 5.9651896e-08
-2.6309022e-09 -7.226305e-09 -2.8124244e-08
-2.079442e-09 2.089761e-08 1.8885949e-08
-1.7968675e-08 5.197132e-09 2.6441096e-08
1.17987495e-08 -3.1281125e-08 -2.5714174e-08
-2.763085e-08 -2.5226967e-08 -4.7336258e-08
-1.813459e-08 1.76979e-08 -4.0241055e-10
1.729661e-08 -1.1233772e-08 -2.499871e-08
1.6800486e-08 -2.7166958e-08 1.5636221e-08
-1.4893827e-08 -1.4777632e-09 -2.8460702e-08
4.043407e-08 4.4328157e-08 3.0291414e-08
6.807661e-10 1.9999574e-08 5.6443046e-09
1.775005e-08 6.2642513e-09 1.8054358e-08
-2.7786232e-08 -2.6541118e-08 -3.794982e-08
1.6961247e-08 7.882811e-08 1.44390295e-08
4.2567634e-09 2.6448732e-09 1.0849353e-08
2.8297217e-08 -1.0164505e-08 5.6007824e-08
-2.2258424e-08 -3.4957728e-09 -2.7372916e-08
-7.1037443e-09 1.598694e-08 -7.064644e-09
4.225258e-08 1.9157507e-09 -2.5472843e-08
3.3396854e-09 1.4165625e-08 -4.6835766e-09
2.9695202e-10 -3.5065096e-08 -3.520683e-09
9.10198e-09 1.518435e-08 2.8786477e-08
-4.2077897e-10 2.9648097e-09 -1.3792592e-08
-1.4044535e-08 -1.1814718e-08 1.1817472e-08
-1.3005192e-08 -1.3428826e-08 -6.046411e-09
5.4271565e-09 -5.1331606e-09 4.4554188e-10
2.9688947e-09 6.855419e-09 2.2190699e-08
2.235468e-09 2.2022655e-09 -6.5977406e-09
1.0134108e-08 6.0295977e-09 -7.5772955e-10
1.6383481e-08 -1.8271674e-08 -1.41727785e-08
-1.0484527e-08 -1.8981607e-08 1.8099358e-09
-2.3358582e-09 -2.8913291e-08 -1.8424158e-08
1.3775411e-08 -4.5535256e-08 -3.861053e-09
2.8308685e-08 -2.4476071e-08 1.8294118e-08
8.473252e-09 -2.0942085e-08 2.0301878e-08
4.868207e-09 -1.86742e-08 4.3148965e-08
8.831249e-09 2.309178e-08 3.396112e-08
4.6210675e-09 -3.20084e-09 1.0397981e-08
-3.9870475e-08 -1.6996479e-08 -3.830136e-09
-6.3864123e-09 -2.0723164e-08 -8.1779916e-10
7.807939e-10 -3.854841e-09 -6.081495e-09
-5.4422316e-09 -2.7799764e-08 -3.9231396e-09
-1.4127641e-09 -9.26931e-09 -5.4046847e-09
-1.5053859e-08 -1.2961541e-08 6.914478e-09
-2.541141e-08 8.6528523e-10 1.7166915e-08
-8.871604e-09 -5.2726725e-09 2.2440648e-08
1.5339435e-08 -2.0544672e-08 -2.00442e-09
3.6486503e-10 -3.540245e-08 -5.3735675e-08
-4.1323695e-08 1.0265556e-08 2.0981902e-08
-4.0149564e-09 -3.801102e-08 5.0448204e-08
-8.897246e-09 -4.1930882e-08 -7.4445996e-09
-2.4128855e-08 7.741251e-09 1.2356658e-08
9.68462e-09 2.9245675e-09 -4.5092644e-08
5.3751226e-09 -2.7195512e-08 1.7989487e-08
1.1953323e-09 -2.6960013e-08 1.513186e-08
-1.1770842e-08 -3.6918246e-11 1.8397289e-09
1.3054825e-08 1.5504078e-08 2.2097616e-08
-6.5783183e-09 -5.473368e-09 1.7669941e-09
8.081031e-09 6.978583e-09 -1.6646087e-08
6.6468018e-09 -1.2636935e-09 -4.606269e-09
2.5278482e-08 -1.6816069e-08 4.9617777e-09
1.1378267e-09 -4.109637e-08 2.5277597e-08
-5.9367276e-09 3.1898967e-08 -3.375695e-08
2.1988637e-08 -2.3899233e-08 -1.10182246e-08
1.2703524e-08 3.6538328e-09 -4.485247e-09
3.802431e-08 7.552087e-09 2.155332e-09
2.023085e-08 -1.9459154e-08 1.3184232e-08
-2.5347184e-08 -2.1995092e-08 -6.777035e-09
8.113412e-09 1.523483e-08 -1.5370542e-08
3.4653194e-08 -1.5936275e-08 4.286167e-08
1.3385866e-08 2.0445036e-08 1.0268941e-10
9.695194e-09 -3.290947e-08 1.0373982e-08
1.5942316e-08 1.0887207e-09 -1.4087724e-08
2.9713537e-08 2.236477e-08 4.5187223e-09
-9.89649e-09 -9.477621e-09 1.9688336e-08
2.790526e-08 -6.5785644e-09 1.2835528e-08
7.609698e-09 7.869729e-09 -2.3684745e-08
2.2406613e-08 -4.9831026e-08 1.0212252e-08
-5.3892197e-09 4.254591e-09 -2.2408079e-08
2.9837498e-08 -8.078196e-10 3.068406e-08
-1.5832041e-08 -3.0218787e-09 -2.3696883e-08
2.1414088e-08 -4.7693785e-08 1.2875714e-08
1.00278905e-08 2.7585685e-08 2.009249e-08
3.093204e-08 7.293079e-09 1.925487e-08
1.3709222e-08 1.9215582e-08 4.774632e-08
3.788732e-08 -2.7865557e-08 7.679801e-10
-2.031352e-09 4.353229e-11 2.0798812e-08
2.6047253e-08 1.2901851e-08 -2.4738764e-09
-1.0293099e-08 3.9567016e-09 -1.3986272e-08
1.6695896e-08 -1.3645275e-08 2.9488707e-09
-6.53391e-09 3.2414933e-09 1.2960829e-08
-6.5603816e-09 3.3490586e-09 -7.483451e-09
6.0560748e-09 -3.5780734e-09 -1.7118857e-09
3.095519e-08 1.1377158e-08 -1.8545586e-08
5.6753553e-09 -7.4839335e-09 -1.8416367e-08
4.3571674e-08 2.3933455e-09 -5.7123968e-09
-1.1551129e-08 2.2430976e-08 8.0132025e-09
-3.6431054e-08 -3.924088e-08 9.017452e-09
-7.1545223e-09 9.154128e-09 1.8730029e-08
-1.799765e-08 -1.3305436e-08 -1.158631e-08
5.996594e-08 1.9734174e-09 -2.333293e-08
1.3621821e-09 -2.1240306e-08 -1.985739e-08
1.0960651e-08 1.6745119e-08 1.233031e-08
-4.7068767e-09 -9.5596535e-09 -1.01841646e-10
8.299403e-09 1.1080498e-08 -1.4535797e-08
1.1151082e-08 9.208865e-09 -1.9719067e-08
2.1089908e-08 -2.229245e-08 -3.2241831e-10
-1.0009063e-08 8.697187e-09 -9.09363e-09
9.739612e-09 -2.0566707e-08 -1.9760424e-09
-1.1861568e-08 -3.3346712e-08 -1.70916e-08
6.6894024e-10 -3.358397e-08 8.7652445e-09
-1.4015554e-08 -3.4861962e-08 1.197785e-09
2.703719e-08 -1.6673052e-08 -1.2293739e-08
-7.4051854e-10 -3.512836e-08 -9.922032e-09
2.1950665e-08 1.744377e-08 2.6838975e-08
-1.5438392e-08 -4.9318796e-08 -1.652811e-08
3.4207082e-10 -5.025463e-09 -3.7142396e-08
1.0947198e-08 -1.6184021e-08 -2.5537597e-08
-1.8663883e-08 -7.474139e-09 1.8746988e-08
-2.4367674e-08 1.2315509e-09 4.648198e-09
2.8905916e-08 -1.2226386e-08 -2.320555e-08
8.546363e-09 -1.0856883e-09 -6.314697e-09
-3.6429202e-09 -7.440081e-10 3.5899916e-09
8.10647e-09 -5.6428693e-09 -6.542609e-09
1.5233727e-08 9.466814e-09 1.6291143e-08
1.8806212e-08 1.1137519e-08 -5.8626295e-09
-2.2854813e-08 -1.3426747e-08 -2.259185e-08
-4.500138e-09 -4.855023e-09 1.1951303e-08
-1.1481536e-09 -1.0236398e-09 -3.3811787e-08
-1.2476875e-08 1.1852357e-08 -5.5256482e-08
-4.689881e-09 9.6715524e-09 1.2575678e-08
3.673042e-08 -1.714442e-08 4.8790895e-08
-1.4620569e-08 -2.1962556e-08 3.5004803e-08
-2.733983e-08 -5.266158e-09 -3.2214228e-08
-4.2508583e-09 -2.6881011e-08 -1.8516328e-08
7.546998e-09 1.3138669e-08 2.468288e-08
-5.595358e-09 -2.7535114e-09 -3.707111e-08
-2.3453817e-08 -1.0270936e-08 2.0477458e-08
-3.0660914e-08 -1.459477e-08 -1.5727702e-08
4.4544874e-09 -1.3901504e-08 1.1478903e-08
-1.0493851e-08 -5.9282264e-09 -7.474874e-09
1.7909487e-08 6.246319e-09 9.1212105e-09
1.5838753e-08 2.0366443e-08 4.0429544e-09
2.2692578e-08 -1.0715815e-08 3.3668912e-09
8.8073975e-09 5.6255884e-09 2.473299e-08
3.213304e-08 -4.299581e-08 5.513459e-09
-5.59319e-09 -1.5887872e-08 -1.3951128e-08
2.2822448e-08 2.8823528e-08 -2.5616945e-08
1.42015715e-08 1.5584327e-08 -9.70776e-09
5.24486e-09 -1.1530913e-08 2.1920963e-08
-1.616755e-08 -7.885305e-09 -1.8708473e-08
-7.402662e-09 -1.2114764e-08 7.307814e-09
1.0567345e-08 -1.8180453e-09 -3.8127186e-09
-1.1061371e-08 1.624705e-09 -2.3533572e-08
-7.0316863e-09 -1.2525345e-08 6.699541e-11
4.255677e-10 2.9833274e-09 7.805423e-09
-4.0920423e-10 -5.286391e-09 -1.3039885e-09
-2.376883e-08 -3.258903e-08 5.6202603e-09
2.2734081e-10 -3.8350876e-08 1.5415726e-08
-3.2335967e-09 -1.4818737e-08 1.7918246e-08
2.5683551e-08 1.7453631e-08 -9.139071e-09
3.9532427e-08 4.2876502e-10 -7.639284e-09
-1.2963202e-08 -4.427929e-08 5.591321e-09
-3.0923516e-08 -1.1112991e-08 3.0206543e-08
-7.936962e-09 3.3065465e-08 1.5820255e-08
8.122027e-09 -6.068523e-08 1.655335e-08
-9.029524e-10 -1.1868577e-08 1.3051255e-08
1.0904278e-08 1.2904779e-08 -1.7129352e-08
1.1676896e-08 -8.944553e-09 2.7349829e-08
3.3510936e-08 2.7237503e-08 -1.3357702e-08
5.5749942e-09 -2.280832e-09 -3.3019059e-09
1.9414964e-08 4.1066823e-08 1.1463916e-08
9.906489e-09 2.0906318e-08 -1.18484085e-08
1.243954e-08 -9.434008e-09 2.665036e-09
-4.560273e-09 6.598824e-09 -1.5865066e-08
-2.2172372e-08 -1.9340224e-08 -1.5802168e-08
-7.92896e-09 1.6263373e-09 -2.4693799e-08
-2.3586141e-08 -3.281863e-08 4.7029936e-10
-4.9969526e-09 -3.1268286e-09 4.448177e-09
-1.1743146e-09 -5.0995093e-09 1.906642e-08
-4.0455115e-09 -3.0749206e-08 -1.1612127e-08
-5.4667737e-09 9.146234e-09 -1.754011e-08
-1.9461013e-09 1.874493e-08 1.4455186e-09
-1.9525677e-09 5.3801092e-09 1.7754337e-09
-8.496633e-09 5.5095835e-09 3.5876377e-09
6.301165e-09 1.4450862e-08 5.4655276e-09
-9.315989e-09 5.7613764e-10 -1.4251873e-09
-3.5151253e-09 6.2273076e-09 -1.0020679e-09
-1.4545796e-08 2.088317e-08 1.7233985e-08
-6.0699734e-09 5.1912616e-09 -2.6011948e-09
2.7373964e-08 -7.1530923e-09 -2.0212486e-08
2.6357743e-08 3.456073e-08 -3.5209755e-08
1.9358954e-08 3.7337986e-09 2.7088405e-09
4.749606e-08 -4.5969255e-08 2.8353051e-08
-2.6180116e-09 -3.0573695e-08 -7.597755e-09
-2.1613875e-08 7.108528e-09 -4.193587e-08
1.6729603e-08 3.460363e-08 2.5915994e-09
3.727881e-08 6.2469e-09 3.7729485e-08
-3.157705e-09 -1.2515534e-08 3.012299e-08
-4.2191317e-08 2.7745257e-08 6.46418e-09
-1.38078065e-08 -6.205485e-10 -2.5961118e-09
-3.721283e-08 -8.226096e-09 8.310894e-09
-1.6339753e-08 5.089486e-09 -2.3089186e-08
-3.493309e-08 -7.4145694e-09 -1.5474958e-08
4.246903e-09 6.554325e-09 3.8259467e-09
-1.2081555e-08 -8.519129e-09 5.620455e-10
-8.490823e-09 3.1727811e-09 -1.7066451e-08
1.2128872e-08 8.165721e-09 -9.3611625e-09
-2.8152929e-08 -2.622914e-08 -1.04761755e-08
5.183043e-08 2.3893069e-08 1.6583979e-08
2.2076197e-08 1.0234513e-09 1.9954442e-08
3.521909e-08 -5.700702e-09 3.7606096e-09
-6.8375288e-09 -1.5380214e-08 -1.2516438e-08
1.8746027e-08 3.0298065e-08 1.8721028e-08
-4.7723057e-09 -3.196848e-08 -1.1489689e-08
-4.3562207e-09 9.164505e-09 -1.495829e-08
1.7422308e-10 -1.0056067e-09 -7.3540067e-09
5.7267635e-09 9.265979e-09 4.4150976e-09
2.8606066e-09 2.4406166e-09 -1.0605806e-08
1.0486325e-09 -4.8375006e-09 4.8998947e-09
2.1813898e-08 -2.0201387e-09 -2.352138e-09
1.3878374e-09 -8.695579e-09 5.4673404e-09
-1.02688515e-08 1.9202888e-08 1.4551363e-08
-1.612047e-08 -1.5966446e-08 -1.952138e-08
-9.731707e-09 -2.8119711e-08 -1.7208606e-08
-1.5397248e-08 -4.391248e-08 -1.1072842e-08
-1.6787398e-08 5.468428e-09 3.075106e-08
2.3291662e-08 -7.2274133e-09 -2.3521793e-08
1.8735303e-08 -2.8567149e-09 -1.4197846e-08
1.928535e-08 7.723812e-09 -3.080178e-09
-3.6174733e-08 -2.2624763e-08 -1.4726592e-08
2.895775e-09 5.5995972e-09 1.3741453e-08
5.5527214e-09 4.3730233e-09 4.2357865e-08
2.4521092e-09 2.7426156e-08 1.1011423e-08
-4.931687e-09 2.3002894e-08 1.7370546e-08
-1.1052637e-09 1.00722035e-08 -2.337135e-09
-1.0437873e-09 1.12318475e-08 -1.2195398e-08
-1.6364451e-08 -8.929682e-09 9.402258e-09
1.3429759e-08 1.2928218e-09 -4.647862e-09
3.5821973e-08 1.7138774e-08 3.1095584e-09
-2.1656263e-09 4.4482094e-09 -1.2415631e-08
-7.521454e-09 -4.545406e-09 2.0043094e-09
3.3739145e-10 -7.211698e-09 -7.0521207e-09
-4.7169824e-10 -1.40186796e-08 -2.6035156e-08
7.580947e-10 -5.825324e-09 3.0319498e-09
1.3609115e-08 1.6703499e-08 2.8389824e-09
8.7266494e-10 1.2314141e-08 3.7372803e-09
8.612174e-09 2.1519684e-08 -6.8321793e-09
4.6788204e-09 5.033596e-09 -6.470306e-10
1.2906369e-09 3.1665637e-09 -2.7010845e-09
8.366763e-09 -2.7857758e-09 5.675529e-09
-2.0207005e-09 2.838157e-10 7.166968e-10
-1.5224668e-08 5.7648504e-09 -4.4648445e-09
3.9588186e-09 -1.6375424e-08 2.8300202e-09
1.3245643e-08 1.5824952e-08 2.0887835e-08
3.4058218e-08 -1.9138863e-08 -8.605673e-09
-1.2834688e-08 3.198788e-10 -2.798518e-08
2.8895837e-08 1.6080506e-08 2.9057395e-08
-2.1916415e-09 2.176666e-08 -9.091913e-09
2.494979e-08 -1.4042118e-08 -8.676347e-09
-1.28138264e-08 -1.3996234e-08 -2.2147749e-08
-4.0429203e-08 6.62677e-08 -1.0810654e-08
4.121911e-09 -3.937364e-09 -2.0401373e-08
-2.4952291e-08 -7.480283e-09 9.921533e-09
1.5859488e-08 2.3108063e-08 5.4621223e-09
-4.3088633e-08 -1.1785388e-09 2.5541922e-09
1.6167087e-08 -1.8828981e-08 -7.428188e-09
-1.7319497e-08 -2.8911362e-09 -1.1972154e-08
-4.4595487e-09 -1.7015669e-09 1.6715148e-08
3.229092e-08 -7.801476e-09 9.602216e-09
8.583346e-09 4.504907e-09 6.5238375e-09
1.0057723e-08 -2.1774678e-08 2.33065e-08
8.553154e-10 1.3826964e-08 -2.5318748e-08
1.6429683e-08 1.245338e-09 3.309483e-09
-2.9162745e-08 -6.4713186e-09 1.3124768e-08
2.6484049e-08 -1.5855225e-08 1.9691546e-08
1.5713861e-09 1.7360797e-08 -8.952384e-09
2.3064963e-09 1.2159443e-08 1.5267596e-09
-9.239096e-10 -1.5110082e-08 -2.0384496e-08
-1.9797335e-08 -8.8866985e-09 8.504349e-09
-4.441665e-09 7.804855e-09 -8.219004e-09
-9.876072e-09 -4.351434e-09 3.7104542e-09
-2.9550704e-09 -5.906931e-09 8.371893e-09
-2.878825e-09 2.0338315e-09 -3.9428567e-09
-1.7963047e-09 3.5946472e-09 4.574192e-09
2.5673716e-09 3.5018408e-09 -2.6947518e-08
1.6780787e-08 -6.380859e-09 -2.5257222e-08
-3.2201886e-10 -4.4050072e-08 4.3698968e-08
3.2319424e-08 -1.5416571e-08 1.4993067e-09
1.9157788e-08 -3.635712e-08 -2.954792e-08
3.223847e-08 8.303346e-10 -1.9045356e-08
1.2375038e-08 -2.3671177e-08 4.7337018e-08
-4.0300066e-08 -1.0825861e-08 3.1076595e-09
-1.578407e-08 3.2678633e-09 4.61677e-09
-2.9146632e-08 1.2278409e-08 6.719386e-09
8.403299e-09 1.0816492e-09 -6.6792962e-09
-2.7847493e-09 1.7281849e-08 1.792889e-08
8.1247595e-09 7.4339743e-09 -8.65861e-09
-8.62382e-09 -2.3251179e-10 3.6142058e-09
-2.9462037e-09 1.4877223e-08 2.4379752e-09
1.9097765e-08 8.47411e-09 -1.1740537e-08
-1.4699575e-09 -3.692871e-08 3.2639624e-10
-3.884515e-09 -1.4201213e-08 7.914322e-09
-3.141625e-09 -3.5623442e-09 2.0697017e-09
2.7396672e-08 -8.356071e-09 -7.19423e-09
1.2773983e-08 3.6965595e-08 -1.7110203e-08
1.787502e-08 -1.1464939e-08 -2.100223e-08
-1.9071238e-09 1.6595161e-09 1.6732114e-08
-5.17028e-09 3.3500145e-09 -2.9856013e-09
-9.961514e-09 -3.1615667e-08 5.075458e-09
-1.5733065e-08 1.039569e-08 4.865541e-09
9.698908e-10 -9.79444e-09 -9.281527e-09
-7.76736e-09 -8.072232e-09 1.0556713e-08
1.3388483e-09 -1.3322854e-10 9.371461e-09
2.6473303e-11 5.872172e-09 4.0665458e-09
-8.5955937e-10 -2.9785896e-11 1.7292788e-09
1.7617294e-08 6.5001906e-09 1.4125753e-08
-7.0549877e-10 -1.0361777e-08 1.8109749e-09
1.1137855e-09 -2.6024831e-09 4.6105264e-08
1.672916e-09 -2.3496398e-08 4.8078723e-09
-3.4210645e-10 1.5444188e-08 -2.9154721e-08
2.317459e-08 9.558529e-09 1.44320005e-08
-2.2248012e-09 -2.0988315e-08 1.9685702e-08
3.139884e-08 -2.0826922e-08 -1.5787215e-08
2.3235675e-08 7.455638e-09 -1.3547526e-08
1.4820794e-08 2.455211e-08 1.6849548e-08
1.6161875e-08 -1.0616095e-09 -4.639305e-09
3.5207384e-09 1.563535e-08 2.959136e-08
-6.049829e-09 -2.291177e-08 -2.5595217e-08
-1.1851789e-08 -1.0532611e-08 4.0136516e-10
-1.6791173e-08 7.863602e-09 -6.917596e-09
-1.451312e-08 -2.151281e-08 1.49011505e-08
-1.2477724e-08 2.730788e-09 2.1445372e-08
-3.2232403e-08 1.4460446e-08 -1.391423e-08
1.1144758e-08 4.4910454e-08 3.659063e-08
-1.225157e-08 -1.6885075e-08 3.863646e-09
-6.7743597e-09 -1.7193694e-08 -2.116637e-08
1.9112125e-08 1.41167344e-08 5.5480025e-09
-1.873684e-08 -3.1522166e-08 -1.0627628e-08
-6.375457e-09 -3.8501113e-09 -5.0992144e-09
1.8528985e-08 1.2333349e-08 1.2733675e-08
2.3559647e-08 5.5795155e-09 -6.129766e-09
9.796248e-09 4.7591038e-09 -3.5253986e-09
2.1630854e-08 1.3525263e-08 1.61965e-08
3.7145709e-09 -2.6521205e-09 -1.3760961e-09
-1.7549295e-09 -4.6131343e-09 -2.0192635e-08
3.2622977e-10 -8.9414615e-11 -4.658194e-09
4.3262225e-09 -6.5692145e-09 -2.2948212e-09
4.4715045e-09 5.7115104e-09 -1.8155091e-09
5.3714615e-09 -1.9298463e-08 -1.993091e-08
-1.901212e-08 -1.5519104e-08 1.530848e-08
1.0015534e-08 1.9725048e-08 2.356241e-09
2.0699812e-08 2.1829805e-10 -8.479726e-09
-3.7581795e-09 -1.4905522e-08 -2.3353449e-08
1.3558221e-08 -5.5398734e-09 5.2400453e-09
-4.0660375e-08 -2.3401276e-08 -1.15017205e-08
1.7168107e-09 3.283883e-09 1.0642196e-08
-1.624437e-09 -5.712216e-08 -5.3522733e-09
-1.497169e-08 -3.7781525e-08 -1.5254084e-08
-4.166119e-09 -2.2132204e-08 -4.8078252e-09
-7.1124315e-09 -1.4853577e-08 4.4087866e-08
-1.3311591e-08 -5.812226e-09 6.4063146e-09
-1.5488649e-08 -1.0231892e-08 1.2310421e-08
8.267769e-09 -1.8811879e-09 1.4891546e-08
-1.5019573e-08 1.1267153e-08 -3.9675867e-09
1.7929107e-08 5.161902e-09 1.1736186e-08
-1.0018866e-08 1.6436599e-09 1.258083e-08
1.2366415e-09 8.557207e-09 3.5693475e-09
4.7920627e-09 1.637383e-08 2.8200522e-09
-2.3451628e-08 -7.317505e-09 1.4245666e-08
-3.232158e-09 -3.921678e-09 6.5552395e-09
-1.0804472e-08 -2.1277343e-08 -3.397625e-08
5.13749e-09 7.869738e-10 -3.6470662e-09
1.4900571e-08 -1.3459883e-08 4.911292e-09
1.6387876e-08 -1.3034617e-08 -1.01151265e-08
-1.3548128e-09 -9.40863e-09 -6.1165633e-09
5.0558393e-09 -4.061598e-09 1.5344298e-08
2.0707578e-09 1.3096631e-08 2.2526283e-09
2.8757408e-09 1.4985959e-09 -7.598714e-09
-6.6952506e-09 1.9289788e-09 -6.098533e-10
-1.2653363e-08 2.264784e-09 -1.0508717e-08
-2.6947077e-08 2.2476629e-08 3.0892529e-09
7.150473e-09 2.9240999e-09 2.6453773e-08
-1.1733757e-08 -1.0371611e-08 -3.236345e-08
-1.8683362e-08 -3.3681218e-08 -2.6207275e-08
5.230579e-09 -3.167282e-08 8.814021e-09
-3.4643364e-08 -2.2627168e-08 -2.1815493e-08
3.6484284e-08 -1.0911051e-08 -1.7920232e-08
2.3525962e-08 3.5034038e-08 2.8075593e-08
1.8327357e-08 1.0810034e-08 3.238074e-08
5.544319e-09 1.0060184e-08 -2.173427e-08
1.7183186e-08 -4.9235123e-09 2.4020299e-08
4.5757678e-09 2.1086246e-08 1.405015e-08
-2.4946495e-08 -1.9018032e-10 -8.1900886e-10
2.935597e-08 1.0230727e-09 -1.7633699e-08
3.9686903e-09 2.7100201e-08 -2.0388953e-08
1.786282e-08 2.2339755e-08 -7.3632958e-09
6.3651786e-09 2.989033e-09 3.9083923e-09
7.245702e-10 -1.04557945e-08 1.9057413e-08
-1.0215903e-08 1.727634e-09 9.538612e-09
-1.64461e-08 -6.369937e-09 -1.6914017e-08
4.505123e-10 -2.20294e-08 5.3395066e-09
8.22667e-09 -2.8449545e-09 -1.7218134e-08
2.7052806e-08 1.3889945e-08 -2.3293967e-09
2.181873e-09 -7.901925e-09 1.2903324e-08
-7.744667e-10 -1.6947716e-08 1.3106012e-08
-1.8931292e-08 -4.1120463e-09 -2.8158823e-08
6.434529e-09 4.618779e-09 1.0722679e-08
4.939814e-09 -2.3105102e-09 5.061797e-09
-3.6703542e-09 4.4168185e-09 2.4509095e-09
-2.930014e-10 -1.175624e-09 2.8520528e-09
-3.850241e-09 -3.7108245e-09 -5.284196e-09
2.999184e-09 -1.6820525e-09 7.051635e-09
1.0967261e-08 9.374819e-09 1.0600932e-08
7.2700708e-09 1.2795019e-08 4.2029473e-09
-4.6436908e-09 -2.8907206e-09 2.9404564e-08
-1.7532201e-08 1.649282e-08 2.3519055e-08
7.6394615e-09 2.8191671e-08 -8.971556e-09
5.131193e-10 3.7701295e-08 -8.29518e-09
2.3153488e-09 -6.8368298e-09 2.320976e-08
-9.115087e-09 -1.3230523e-08 -5.861954e-08
-6.470174e-09 -4.2982254e-08 -5.109557e-10
-2.5510412e-08 -9.6314245e-09 2.4544002e-09
1.3762359e-08 -1.4127782e-08 -3.16845e-09
6.6908488e-09 2.7266752e-08 8.108036e-09
-7.716167e-09 -1.8690553e-08 1.52963e-08
-2.1566281e-08 -1.1898569e-09 8.397123e-09
8.430558e-09 1.3624409e-08 -1.7699186e-08
-1.4829466e-08 -1.5634603e-08 -8.321644e-09
1.724084e-08 9.535165e-09 -1.7681945e-08
-2.5572051e-09 -4.8282627e-09 6.6097905e-09
-1.8872202e-08 -2.1776263e-09 2.680256e-08
4.4230724e-08 1.5078802e-08 1.0016446e-08
2.5118082e-08 6.6263253e-09 -1.3020492e-08
-1.880788e-09 -1.5564195e-08 -7.565354e-09
-4.0145505e-09 -1.4923515e-08 1.5428974e-08
-8.0843576e-10 -5.6729834e-09 -3.1713743e-09
-3.0043164e-09 -9.52961e-09 6.061447e-09
-6.7510406e-09 4.0022847e-09 9.91554e-09
7.3417414e-09 5.413986e-09 -2.000996e-08
-1.1880287e-08 1.3992852e-09 6.348893e-09
-1.8581076e-08 -1.1514137e-09 2.2174376e-09
-3.5854963e-10 3.8846197e-09 9.777133e-11
4.2281596e-09 -2.5944262e-09 1.7555937e-09
-4.776972e-09 -3.0426168e-09 -1.2111999e-08
3.5786136e-09 -1.0351182e-08 -4.082529e-09
-1.5449102e-08 -2.899834e-08 3.348757e-08
-2.5617317e-09 7.1334583e-09 -3.8793207e-08
1.4876234e-08 2.0464565e-08 -9.048201e-09
2.3828651e-08 4.3204658e-09 -2.2353403e-08
-4.599292e-10 -2.5444296e-08 6.717384e-09
3.452622e-08 -3.6780754e-08 -3.1074792e-09
-1.1664268e-08 1.9564222e-08 1.7236722e-09
4.7803855e-08 3.6459774e-08 3.3696406e-08
9.083785e-09 -1.4468475e-08 -1.9045329e-08
-1.2022889e-08 4.1290567e-09 2.1642794e-08
-1.1448141e-08 -8.893836e-09 -2.3403938e-08
2.7645491e-08 1.9879092e-08 1.19984644e-08
7.36848e-09 -1.0364525e-08 -6.2136074e-10
-8.830585e-09 6.701735e-09 2.9732675e-08
-1.2017778e-09 5.692468e-09 -4.5060112e-08
7.1318267e-09 1.1972674e-08 2.1302252e-08
-9.038956e-09 -1.3074528e-08 1.31496805e-08
-5.3598015e-11 2.244671e-08 -2.4020794e-08
2.7899136e-09 8.9914165e-10 -9.615759e-09
2.321209e-09 -1.170997e-08 -1.7043078e-10
-2.7800402e-08 -1.5207664e-08 1.4849316e-08
-1.2271075e-08 6.194197e-09 -1.3609371e-08
3.5645762e-08 3.2427284e-08 2.1461956e-08
1.6587212e-09 1.3986141e-09 -6.222133e-09
2.446356e-09 -4.2817727e-09 -1.6872725e-08
3.1913236e-09 -1.3710032e-08 6.07418e-09
-1.0797283e-08 -1.5367746e-08 -7.61977e-09
8.31625e-09 1.1131086e-08 -9.387368e-10
6.568379e-09 4.7987974e-09 4.614001e-09
5.183612e-09 -1.5379672e-09 -1.9197213e-09
-8.6270546e-11 3.3942351e-09 -1.0451485e-08
-3.461542e-08 -1.7993727e-08 2.5872984e-08
2.1479405e-09 -1.3513131e-08 9.972535e-09
-5.63125e-09 8.165543e-09 -4.071222e-09
2.046351e-08 -1.5363604e-09 -1.1941024e-08
-3.610016e-09 -2.4400244e-08 -4.6205972e-10
2.2547166e-08 2.5048164e-09 -2.7174302e-08
-4.2571093e-09 -3.0960234e-09 -2.8513956e-08
3.5466816e-09 -1.6003407e-08 -3.0933207e-09
2.9526914e-08 -1.0279713e-08 -3.08194e-09
-1.150995e-08 6.8031754e-09 1.9086777e-08
-5.3865286e-09 -2.2480522e-08 -7.0231083e-09
2.261628e-08 -1.7072566e-08 1.0982699e-09
3.43086e-10 -3.1500074e-09 -1.1174793e-08
-3.4146346e-08 -1.8381252e-08 8.241065e-09
-3.2014658e-09 -1.3658186e-08 -8.181473e-09
-6.4337695e-09 -7.398593e-09 2.5636927e-08
5.156619e-09 1.751802e-08 -1.8100593e-08
-8.67566e-09 -4.932319e-09 -2.9396947e-08
7.0141404e-10 2.1856529e-08 2.392264e-08
1.251683e-08 -7.860741e-09 -1.946134e-09
-2.6616405e-08 -2.2572308e-09 8.268176e-09
-1.5699754e-08 -1.3190248e-08 1.3504763e-08
-1.644609e-08 -3.2271878e-08 2.817358e-09
-5.5906293e-09 -2.754483e-09 -1.1377218e-08
6.572013e-09 -1.5770784e-08 4.433141e-09
-1.4916402e-08 1.7718499e-08 1.456971e-08
-5.7705534e-09 2.600261e-08 -6.3627628e-09
1.1976014e-09 1.05006945e-08 -5.933961e-09
2.8903189e-09 1.0715653e-08 -7.055658e-09
7.0380315e-09 -5.9987686e-09 -1.9281656e-09
-1.6636026e-09 -4.6444395e-09 -1.1557764e-09
-1.5460916e-08 -5.97613e-09 -5.082314e-09
-8.624905e-09 5.7864487e-09 -2.770869e-08
3.1417798e-08 1.0164697e-08 5.2063697e-08
2.5961185e-08 -1.9284089e-08 -1.8654848e-08
5.447065e-10 -1.1988806e-08 7.8427025e-09
2.9354666e-08 -2.333445e-08 2.41883e-08
8.015013e-09 2.3041693e-08 3.7928505e-08
1.1918033e-08 -1.936902e-09 -1.5737024e-08
2.9300917e-10 7.309525e-09 -2.723581e-08
-1.9679014e-08 1.4228578e-09 1.3030635e-08
3.287877e-09 1.57594e-09 -9.716964e-09
1.4011196e-08 -2.471936e-08 9.206914e-09
-2.0600465e-08 1.3655983e-08 -2.1327233e-08
-3.19349e-10 6.064068e-09 2.2111728e-08
-6.636369e-09 1.6108364e-08 2.0089452e-08
-1.1833352e-09 1.1524283e-09 2.2172578e-08
1.0065811e-08 1.6152974e-08 -7.935587e-09
-2.4403342e-08 5.7865034e-08 -1.0628387e-09
1.4078241e-09 -2.356754e-09 -1.9697517e-08
1.5517307e-08 -5.279091e-08 -8.826029e-09
-3.8306286e-08 -3.0776086e-08 6.334245e-09
3.536319e-08 -1.5774493e-08 1.226155e-08
1.3589606e-08 2.2758428e-08 7.905237e-09
2.4897318e-08 -1.3019035e-08 -8.75812e-09
1.3027526e-08 1.6439174e-08 2.984528e-08
3.0705046e-08 -1.9046986e-08 2.6025047e-08
5.2627893e-09 -2.1164037e-09 1.402285e-08
-2.0307935e-08 9.577752e-09 -6.9898487e-09
-1.9510248e-08 -1.3029671e-08 -2.9413325e-08
-1.4609269e-09 -1.240878e-08 7.9244e-09
1.0681191e-09 -2.965912e-09 5.4944382e-09
-2.8066816e-09 1.1875168e-10 -5.4198726e-09
1.1548348e-08 6.952021e-09 -4.5474744e-09
4.9155634e-08 1.0880839e-08 -1.2083719e-08
-1.3319174e-08 -1.0082157e-10 1.7761787e-08
-3.1323896e-08 -3.1458097e-08 3.7701497e-10
1.60398e-08 -1.4166428e-08 -2.1676158e-08
2.7860917e-08 6.53833e-09 -4.2821604e-08
5.784707e-09 -6.3669487e-09 -1.74373e-08
1.6166464e-08 -1.6560875e-08 3.047624e-08
-3.0143472e-09 -6.2216965e-10 -6.502686e-09
-9.764099e-09 -2.1912061e-08 -1.2950148e-08
-1.0210742e-08 5.768688e-10 -1.6403698e-09
1.8150532e-08 -5.130274e-09 -3.1726013e-09
-1.5793413e-08 -2.1461195e-09 2.0383151e-08
-4.1908437e-09 6.3126326e-09 7.078942e-09
-9.351666e-09 1.43644305e-08 -2.2828146e-08
1.0698596e-08 -7.471682e-09 1.4196527e-08
4.248244e-09 -2.7885445e-09 5.9583685e-09
-2.4014199e-08 -1.5981954e-08 -2.0928983e-09
-9.873804e-09 -1.0967613e-08 4.1492676e-09
-8.796819e-09 5.948057e-09 -1.8597618e-08
-1.1848151e-09 3.2665977e-09 1.0495612e-08
2.0650885e-09 -2.3685821e-08 6.1272694e-09
3.0705888e-08 3.921253e-09 1.423911e-08
-1.693452e-08 -5.0912334e-08 -6.810242e-09
3.5467885e-08 7.498819e-09 -1.1258995e-08
9.44372e-09 -1.6837896e-08 -1.8559358e-08
9.765907e-09 3.744531e-09 2.2001598e-09
6.9525457e-09 1.889483e-08 -1.5067054e-09
8.162955e-09 -2.6867353e-09 3.3740344e-09
5.8488565e-09 1.5750405e-08 1.2367529e-09
-3.7387964e-09 2.691641e-09 5.895061e-09
3.9306328e-10 -3.3434564e-09 -2.129458e-09
6.8133374e-09 -2.1541775e-08 -2.916407e-08
-2.6760677e-08 -3.542278e-08 3.0422324e-08
-1.1546908e-08 3.2786662e-10 3.0772988e-08
1.3079753e-08 -6.887396e-09 -8.272768e-09
1.9111832e-08 4.7315516e-09 -2.8805505e-09
-1.0485364e-08 -6.866256e-09 -1.6413033e-08
-1.2998349e-08 -1.7190374e-08 -1.697801e-09
8.325065e-09 -3.186952e-08 1.943259e-08
1.9099495e-09 1.7863792e-08 1.2572965e-10
2.8088138e-09 -3.6097303e-10 1.2380827e-08
2.4010808e-08 1.2376842e-08 1.9386583e-08
5.31896e-09 -9.969295e-09 2.5539046e-08
-6.67552e-09 -1.6083613e-08 -1.3171638e-08
7.4020083e-09 2.5931389e-08 -1.0094604e-08
3.750997e-09 -2.2856524e-08 -5.176088e-09
-6.656786e-09 3.1102836e-09 2.6553824e-08
-1.8436552e-08 -1.4326956e-08 -5.307323e-09
1.3170897e-08 8.664603e-09 1.3769745e-09
7.361307e-10 1.6016896e-08 8.122335e-10
2.8203864e-08 2.0980288e-08 7.874922e-09
6.728562e-10 -5.001275e-09 -3.0930465e-08
2.6302844e-09 -5.0741487e-08 -2.7065072e-08
6.7907453e-09 -1.2588436e-08 -3.3589165e-09
2.8635935e-08 5.823799e-09 -1.5271008e-08
7.659125e-10 -1.8777428e-08 -1.1693015e-08
-1.13562635e-08 1.0750954e-08 1.0173418e-09
-8.1164675e-09 -6.3071464e-09 -2.3223688e-08
-9.1102015e-10 -6.4260277e-09 2.3091747e-08
-1.4729643e-09 1.8329422e-09 -1.44454875e-08
-2.7965141e-09 3.8025467e-09 -1.2449186e-08
3.1084457e-09 1.1588166e-08 4.559212e-09
-3.4685677e-10 1.812176e-09 8.199864e-09
-2.5900881e-09 1.2700623e-08 -4.685824e-09
2.0618558e-08 -1.6568451e-09 -1.9677893e-08
-4.907541e-09 -1.0733502e-08 1.8034504e-08
2.1939456e-08 3.074056e-08 8.682958e-09
-1.5758566e-08 -1.720248e-08 -4.750068e-09
-6.3701258e-09 -9.507387e-09 1.6759419e-08
2.8698443e-08 9.608526e-09 -2.9492977e-09
-1.2318597e-08 -7.957196e-09 -1.8983474e-08
2.5987317e-08 2.2319377e-08 -6.090573e-09
1.8806187e-08 -2.986388e-08 -4.3041424e-09
-6.0046224e-10 -2.1742528e-08 -3.0890113e-09
-2.8806255e-09 -2.0386869e-08 -2.8128994e-08
2.228849e-09 1.4553265e-09 1.2171503e-08
2.4662006e-09 1.2929363e-08 -1.6828001e-09
-1.1033977e-08 -2.2176582e-08 -2.5738002e-08
-9.3128945e-09 -2.3948235e-08 -5.4832627e-09
8.960321e-09 -3.1408098e-10 3.4390357e-08
2.3642965e-08 -6.0094316e-09 -8.05019e-09
5.7820397e-09 -2.5380489e-08 2.6922957e-09
-1.15691225e-08 2.4234463e-09 1.6378598e-08
1.7423814e-08 -2.6184068e-09 -3.5378664e-09
-4.6817403e-09 -2.5000869e-08 6.7573254e-09
1.906019e-08 -7.990474e-09 -3.8924886e-09
5.109923e-09 7.2729867e-10 1.9569399e-08
-1.2831529e-08 -2.0634054e-08 -1.2109175e-09
-3.44345e-10 -1.0336148e-08 -4.8713393e-09
-3.3614511e-09 -7.946264e-09 1.485786e-08
8.543733e-09 1.1217755e-09 -8.215084e-09
-1.22574155e-08 -4.2114743e-09 7.37436e-09
1.6686063e-09 -7.560502e-09 -4.0119255e-09
-9.670155e-09 -2.5621765e-09 -6.106795e-09
1.1685573e-09 -3.4462777e-09 8.757552e-11
2.9555483e-08 1.2690484e-09 9.199511e-09
-1.3058057e-08 -1.8804123e-08 2.1041338e-09
-4.0542396e-09 -1.3819955e-08 -3.2600042e-08
-2.2544295e-08 3.7032777e-08 -4.0367024e-08
1.1759077e-08 -1.7091399e-08 1.1885718e-09
-3.8148746e-09 -1.9559407e-08 -5.3580345e-09
4.2083537e-09 -9.99388e-09 -2.3790403e-08
-3.1471048e-11 6.23952e-09 -1.0030535e-08
1.5688139e-08 8.6595886e-10 6.225917e-09
1.5023357e-08 -2.2630548e-08 -1.3813763e-08
-2.3533605e-08 -1.4852605e-09 -2.2927885e-08
5.3287788e-09 1.7471549e-09 2.20456e-08
1.7978165e-08 1.5935553e-08 -1.0786041e-08
-5.3836846e-09 9.316812e-09 4.3149218e-09
-6.7031682e-09 5.6772733e-09 -2.7245983e-10
9.02914e-09 -1.2644447e-08 7.0335764e-09
1.1853354e-08 3.296038e-08 2.353838e-08
-2.037613e-08 -1.9288564e-08 1.2691489e-08
-1.1892386e-08 6.9841892e-09 -3.0276122e-09
1.0500861e-08 1.190463e-08 -6.6882233e-09
-1.7684739e-08 -2.853008e-08 -8.39696e-09
1.6346808e-08 1.4175203e-09 1.4998339e-08
6.008017e-09 1.6631956e-09 1.008546e-08
3.1664418e-09 1.2779936e-08 -1.1557688e-08
5.6887464e-09 1.170671e-08 1.1312181e-08
1.0190773e-08 8.787124e-09 1.6324485e-08
8.134108e-09 6.5574266e-09 -1.5257523e-08
-6.960672e-09 -5.623029e-09 -6.4426056e-09
2.2553899e-09 5.226162e-10 -6.282954e-10
1.62022e-09 6.15262e-09 -1.018871e-09
1.1696036e-09 -4.113523e-09 -3.6450911e-09
2.1359132e-09 3.1636822e-09 4.7052695e-09
1.519371e-08 -1.217255e-09 -1.325438e-09
-1.5726611e-08 -6.1722707e-09 2.1929566e-08
-1.876621e-09 3.924184e-09 2.3767294e-08
-1.2537673e-09 1.3673301e-08 -2.5563814e-08
1.21453905e-08 6.8528747e-09 -2.6107417e-08
-8.522655e-09 2.0291768e-08 -1.99465e-08
1.2012357e-08 3.0044713e-08 1.8266255e-09
2.6450252e-08 -1.812456e-08 -2.3205379e-08
7.254916e-09 -1.24273685e-08 2.0871513e-09
-1.4278334e-08 2.5156528e-08 1.4260998e-08
2.9910523e-09 4.32139e-10 8.210131e-09
1.2820167e-09 -5.863264e-09 -9.81166e-09
4.4352664e-09 -1.7844364e-09 -1.7465451e-08
-2.338787e-10 -2.9373044e-09 -4.410899e-09
6.180342e-09 2.3244942e-08 -2.384349e-08
1.6576378e-08 -2.512996e-08 -1.2756524e-08
-2.2601872e-08 -7.3885176e-10 1.7854648e-08
-1.06877165e-08 9.513256e-09 2.1713321e-08
-1.0310864e-09 -8.336106e-09 5.4184044e-09
1.4603496e-09 1.0945161e-08 -9.091326e-09
4.1605914e-09 1.0212126e-08 -3.7120367e-09
5.075383e-09 -9.795913e-09 -6.9470016e-09
-1.862636e-09 4.087385e-09 1.25009825e-08
3.5772558e-09 -2.5702356e-09 -2.6464473e-08
-2.2738869e-09 -5.2888423e-09 -1.0610898e-08
-1.332599e-08 3.778303e-09 5.9055144e-10
6.5027383e-09 3.8302366e-09 3.5728152e-09
2.61643e-09 -1.6371593e-09 -1.3074498e-08
8.610129e-10 3.3721117e-09 -3.295018e-09
4.4417336e-10 5.7640723e-09 -3.536751e-09
-2.3357314e-09 2.365397e-09 3.2198804e-09
-5.966381e-10 1.03260456e-10 -2.1193709e-10
-2.2277398e-08 5.3323177e-09 1.5706262e-09
-8.219212e-10 -1.9090183e-09 5.8661667e-09
7.987869e-09 -4.5502464e-09 9.849982e-09
-3.2857825e-09 1.7396903e-08 -4.41144e-10
-1.0438224e-08 -1.6524476e-08 2.146859e-08
-3.4545025e-09 5.417941e-09 7.73259e-09
-2.8642644e-09 -8.106284e-09 -3.0185394e-08
1.1529786e-08 -4.0495194e-09 2.6239564e-09
-8.587904e-09 -6.2471552e-09 9.507584e-09
-1.368429e-08 2.8108031e-09 -2.0214708e-10
-8.615066e-09 -1.0131343e-08 1.351459e-08
-4.7202624e-09 -7.593305e-09 -2.4119982e-09
-6.8869244e-09 -1.6817072e-08 -5.741229e-09
9.884115e-09 1.2524339e-08 4.565096e-09
-8.335217e-09 -1.9914628e-09 -2.7498324e-08
3.8336383e-09 8.5733287e-10 -1.0401866e-08
-1.3349165e-08 3.4628966e-09 5.128843e-09
-9.768124e-09 5.2319304e-10 3.8203964e-09
-2.5863134e-09 2.850744e-09 -9.465954e-09
-3.1273277e-09 1.05816e-08 5.4709206e-09
-3.2240075e-09 -2.8247495e-09 7.698924e-09
9.111211e-09 7.038917e-09 -4.4168935e-09
8.421281e-09 -7.768363e-09 -4.5803668e-09
9.173685e-09 1.1891245e-09 1.744468e-08
-1.6099817e-08 -1.0170428e-08 1.9211639e-08
-7.2221145e-09 3.3626115e-09 -2.0075412e-09
-1.8167016e-09 -1.3009878e-08 -1.3738371e-08
4.6372137e-09 4.488857e-10 6.341018e-09
-2.3139992e-09 -3.764863e-09 -6.6235177e-09
-5.9440315e-09 -1.5610299e-09 1.6209105e-09
6.3626227e-10 -4.641689e-09 -3.2963463e-09
-4.8716024e-11 1.4282792e-09 -2.388441e-10
-2.585506e-09 9.003205e-10 4.871898e-09
5.456223e-09 -7.1886888e-09 -1.7440922e-08
-2.650888e-09 8.519125e-09 1.7842625e-09
-4.7524455e-09 3.787325e-09 9.39451e-09
8.761358e-09 -8.2689855e-09 -5.6347185e-09
7.568766e-09 1.1430874e-08 -1.1571685e-09
-7.789912e-09 -7.973205e-09 6.00866e-09
-5.85783e-09 2.3451923e-09 4.161887e-09
4.2611568e-09 3.8730334e-09 2.9140503e-09
5.4003535e-09 1.02550795e-08 -2.5599822e-09
-6.6919217e-09 -1.29266e-09 4.688631e-09
-1.320249e-09 8.8487635e-09 1.1335549e-09
1.6384953e-09 -6.0978805e-11 3.7432835e-09
-8.893488e-10 3.67849e-09 3.478827e-09
1.01737605e-08 -3.6110008e-09 -1.0147237e-08
-1.1511203e-09 -4.773901e-09 1.0132891e-08
8.526484e-10 -5.1562283e-09 2.3544675e-09
-3.0258243e-09 -1.1464044e-09 2.6781826e-09
-9.721943e-09 8.9010466e-10 1.4194154e-08
-3.7892178e-10 6.311552e-09 -6.4714154e-09
7.660053e-09 6.985272e-09 -1.1931681e-08
3.4323664e-09 -3.4628629e-09 3.688962e-10
3.6614853e-09 -2.2288265e-09 -7.621191e-10
-5.1330207e-09 9.990335e-09 -4.2751616e-09
6.071541e-09 -4.4562602e-09 -3.412827e-09
3.5826315e-09 6.085786e-09 -1.2580585e-09
-4.07338e-09 -6.5398165e-10 5.1049853e-09
-1.6103888e-09 2.3788504e-09 -6.362611e-10
-7.812778e-12 1.5679473e-09 2.0090307e-09
2.9548546e-09 -2.3891888e-09 -1.7694268e-10
-7.5184625e-10 4.1483e-10 8.122429e-10
-5.4976046e-10 3.0216024e-11 -5.1207577e-10
2.4932763e-09 -3.517016e-09 -8.3298424e-10
-1.0535226e-09 -2.967935e-09 3.6520373e-09
1.2062433e-09 1.9287956e-09 -1.255645e-09
-6.7216e-10 3.2305147e-09 4.229739e-09
1.7741795e-09 1.1786011e-08 2.0047952e-09
7.3521678e-09 -7.2287967e-09 -9.054315e-09
-5.5402634e-09 -1.4003793e-09 6.437737e-09
-9.602297e-09 6.0068768e-09 3.9159636e-09
5.840135e-09 4.4369775e-09 -2.912023e-09
3.2415657e-09 -4.9288635e-09 5.7340355e-10
-9.795409e-10 1.1052554e-09 2.2289968e-09
-7.667987e-09 -1.3216845e-09 1.7743091e-09
3.0382872e-09 4.040203e-09 -7.700913e-10
7.965971e-10 -1.3755418e-09 -6.0758945e-09
-7.237525e-10 1.0013307e-09 7.330668e-09
3.070097e-09 5.783445e-09 -3.379543e-09
3.3655728e-10 4.077508e-09 4.8257887e-09
-2.6872458e-09 3.314777e-09 1.1317591e-10
2.7927076e-09 2.7609945e-09 -3.097384e-09
5.9469945e-09 5.325111e-09 5.0871183e-09
-5.0378155e-09 -2.1591553e-09 -6.0735643e-09
6.236777e-09 -1.1894943e-08 5.0438e-10
9.747979e-10 -4.8062962e-09 3.1326324e-09
-6.3388086e-09 4.7330806e-11 1.7259786e-09
8.766352e-10 8.607028e-09 -1.9246897e-09
4.7745266e-09 -1.3019482e-09 -1.4694692e-09
-2.2031132e-09 8.330675e-10 3.3419427e-09
-6.070202e-09 -4.9521715e-10 -7.2410533e-10
1.701989e-09 7.3462264e-11 -1.4751622e-09
3.6846443e-10 1.0934549e-10 6.594899e-10
3.0900793e-10 1.2835717e-09 6.559646e-10
-7.946616e-12 2.39482e-10 -3.407378e-10
