⇧r⇧n35⇧h7⇧o⇧ca⇧nq⇧c⇧k⇧rv9⇧xz⇧wp

rn  h oc n ckr  x w
  35 7  a q   v9 z p

^ = push next
non-^ = pop, product, output

r
rn
r 		3n
		3n 5r
h
		3n 5r 7h
o
oc
o 		3n 5r 7h ac
on
o 		3n 5r 7h ac qn
oc
ock
ockr
ock 	3n r5 7h ac qn vr
oc 		3n r5 7h ac qn vr 9k
