<<<<<<< HEAD
Congratulation!
You got my secret!

Please replace as follows:
(1) = first password
(2) = second password
(3) = third password
...

=======
Congratulation!
You got my secret!

Please replace as follows:
(1) = first password
(2) = second password
(3) = third password
...

>>>>>>> master
TWCTF{(2)_(5)_(1)_(4)_(3)}