51 57 48 5d 4a 59 4c 07 41 4e 4d 41 42 13 59 4a 5d    QWH]JYL.ANMAB.YJ]
51 0d 5e 45 52 41 54 45 4f 4e 4d 41 4c 57 59 4a 5d    Q.^ERATEONMALWYJ]
51 57 48 5d 10 4f 54 45 57 56 55 41 4c 57 41 52 45    QWH].OTEWVUALWARE
51 57 48 5d 4a 59 4c 07 41 63 67 59 54 4f 41 52 45    QWH]JYL.AcgYTOARE
30 57 48 07 52 05 4c 5d 3f 4e 4d 38 54 4f 03 52 45    0WH.R.L]?NM8TO.RE
49 4f 50 45 52 41 54 45 57 56 55 41 4c 57 38 4a 5d    IOPERATEWVUALW8J]
0b 4f 48 5d 4a 41 54 45 4f 4e 4d 59 54 4f 41 52 47    .OH]JATEONMYTOARG
30 57 48 07 7f 6b 4c 5d 57 4e 4d 41 4c 4f 59 4a 45    0WH..kL]WNMALOYJE
49 4f 50 45 52 4f 10 5d 57 3e 4d 41 4c 57 41 52 45    IOPERO.]W>MALWARE
49 4f 50 5d 4a 59 54 45 4f 4e 55 59 54 57 59 4a 5d    IOP]JYTEONUYTWYJ]
49 4f 50 45 52 41 4c 5d 57 4e 4d 41 4c 4f 59 4a 68    IOPERAL]WNMALOYJh
63 57 48 5d 52 41 54 01 57 56 3d 41 4c 57 41 52 5d    cWH]RAT.WV=ALWAR]
51 57 48 47 52 41 54 45 4f 4e 4d 41 4c 57 41 4a 5d    QWHGRATEONMALWAJ]
51 4f 50 45 16 59 4c 35 4f 56 55 59 54 4f 03 5c 45    QOPE.YL5OVUYTO.\E
49 57 48 5d 52 41 54 45 57 56 55 6c 66 4f 59 4a 5d    IWH]RATEWVUlfOYJ]
51 57 48 35 50 41 54 45 4f 4e 4d 41 4e 2e 59 10 4b    QWH5PATEONMAN.Y.K
49 4f 50 45 52 41 54 45 4f 4e 55 59 54 4f 59 4a 5d    IOPERATEONUYTOYJ]
39 4d 50 45 4a 59 4c 45 4d 56 55 03 4c 4f 59 4a 45    9MPEJYLEMVU.LOYJE
49 4f 50 5d 4a 59 79 6f 57 56 55 41 38 4f 59 10 45    IOP]JYyoWVUA8OY.E
49 4f 48 5d 4a 41 54 45 4f 56 55 59 4c 57 41 52 45    IOH]JATEOVUYLWARE
49 4f 50 45 52 59 4c 5d 4f 4e 4d 41 4c 57 41 52 5d    IOPERYL]ONMALWAR]
51 57 50 45 4a 59 4c 45 57 56 55 41 4c 57 41 4a 5d    QWPEJYLEWVUALWAJ]
51 62 7a 5d 4a 59 54 45 3b 56 55 03 4c 57 38 4a 5d    Qbz]JYTE;VU.LW8J]
0b 4f 50 01 4a 59 24 45 4f 4e 4d 41 4c 57 41 52 45    .OP.JY$EONMALWARE
51 57 48 45 52 41 54 45 4f 4e 4d 59 54 4f 41 52 5d    QWHERATEONMYTOAR]
51 57 50 5d 4a 59 54 45 41 0a 55 59 3c 7a 6b 4a 5d    QWP]JYTEA.UY<zkJ]
51 4f 50 45 26 59 4c 07 4f 4e 4f 38 54 4f 59 4a 35    QOPE&YL.ONO8TOYJ5
4b 4f 50 5d 4a 59 4c 5d 57 56 55 41 54 4f 59 52 45    KOP]JYL]WVUATOYRE
49 4f 50 45 52 41 4c 5d 57 4e 4d 59 54 4f 41 4a 5d    IOPERAL]WNMYTOAJ]
51 57 48 5d 4a 31 56 68 65 63 67 41 42 13 59 4a 5d    QWH]J1VhecgAB.YJ]
51 57 48 5d 10 4f 54 45 4f 40 09 59 54 4f 41 4a 5d    QWH].OTEO@.YTOAJ]
51 4f 50 45 52 41 54 45 4f 4e 4d 6c 66 13 59 4a 35    QOPERATEONMlf.YJ5
4b 4f 50 45 50 38 4c 5d 0d 4e 09 59 54 27 43 52 45    KOPEP8L].N.YT'CRE
51 57 48 45 52 41 54 45 4f 4e 4d 41 4c 7a 6b 4a 5d    QWHERATEONMALzkJ]
51 4f 50 01 4a 03 54 45 57 56 55 41 54 4f 59 52 45    QOP.J.TEWVUATOYRE
49 4f 48 5d 4a 41 54 45 4f 4e 4d 41 4c 57 41 7f 6f    IOH]JATEONMALWA.o
51 57 48 45 52 59 4c 5d 4f 4e 55 59 54 57 59 4a 5d    QWHERYL]ONUYTWYJ]
51 57 48 45 4a 59 4c 45 4f 56 55 59 54 15 4f 52 45    QWHEJYLEOVUYT.ORE
51 57 48 01 4a 59 4c 45 41 0a 55 59 0e 59 41 52 45    QWH.JYLEA.UY.YARE
49 4f 50 45 52 41 54 4b 0b 56 55 03 42 57 41 4a 5d    IOPERATK.VU.BWAJ]
51 57 48 07 5c 41 54 68 65 56 55 59 4c 57 59 4a 5d    QWH.\ATheVUYLWYJ]
0b 0b 48 5d 22 41 4c 5d 57 4e 4d 41 4c 4f 59 4a 45    ..H]"AL]WNMALOYJE
49 4f 50 45 50 59 4c 07 4f 56 55 59 3c 55 41 52 01    IOPEPYL.OVUY<UAR.
51 3f 50 45 2b 59 16 45 4f 4e 4d 41 4c 57 41 16 5d    Q?PE+Y.EONMALWA.]
51 4d 52 5d 4a 03 54 5d 57 56 4d 43 54 4f 03 52 68    QMR]J.T]WVMCTO.Rh
63 57 48 5d 52 41 2d 5d 57 56 55 31 4e 57 41 4a 5d    cWH]RA-]WVU1NWAJ]
51 4f 50 45 52 59 4c 5d 4f 40 09 59 54 4f 59 4a 5d    QOPERYL]O@.YTOYJ]
49 57 48 5d 52 41 54 45 57 56 55 59 54 4f 59 4a 45    IWH]RATEWVUYTOYJE
51 57 48 5d 4a 59 54 5d 57 56 4d 41 54 4f 59 52 5d    QWH]JYT]WVMATOYR]
51 57 50 45 4a 59 4c 45 62 64 34 59 54 15 4f 52 45    QWPEJYLEbd4YT.ORE
49 4f 50 4b 16 59 54 5d 57 56 4d 41 4c 57 59 4a 5d    IOPK.YT]WVMALWYJ]
49 57 48 5d 52 41 4c 5d 57 4e 55 59 54 57 41 52 45    IWH]RAL]WNUYTWARE
30 57 12 4b 52 41 54 45 4f 4e 4d 41 4c 57 41 52 3c    0W.KRATEONMALWAR<
51 57 5e 4b 4a 59 24 45 57 56 55 41 4c 4f 59 4a 45    QW^KJY$EWVUALOYJE
64 65 50 47 2b 59 4c 5d 57 56 55 59 54 27 43 52 5d    dePG+YL]WVUYT'CR]
51 57 50 45 52 41 4c 5d 57 4e 4f 38 54 4f 59 4a 5d    QWPERAL]WNO8TOYJ]
51 4f 48 5d 4a 41 54 45 4f 4e 4f 38 54 4f 59 4a 45    QOH]JATEONO8TOYJE
49 4f 50 45 52 41 54 45 4f 4c 34 59 54 27 43 52 45    IOPERATEOL4YT'CRE
51 57 48 45 52 59 4c 5d 4f 63 67 6c 66 57 41 52 45    QWHERYL]OcglfWARE
49 41 14 5d 4a 59 4c 07 4f 40 09 59 54 15 4f 52 45    IA.]JYL.O@.YT.ORE
51 57 48 5d 4a 03 5a 01 57 56 0f 4f 61 7d 41 52 45    QWH]J.Z.WV.Oa}ARE
49 0b 48 5d 22 43 54 45 4f 0a 55 59 4e 55 59 4a 07    I.H]"CTEO.UYNUYJ.
49 57 48 5d 52 43 4c 5d 57 4e 4f 59 54 15 6c 78 45    IWH]RCL]WNOYT.lxE
49 4f 50 5d 4a 59 54 45 4f 4e 4d 59 54 4f 41 52 5d    IOP]JYTEONMYTOAR]
51 57 50 5d 4a 59 54 45 57 56 55 41 4c 4f 59 4a 68    QWP]JYTEWVUALOYJh
63 0b 48 07 52 38 4c 5d 0d 40 4d 41 4c 2e 59 4a 4b    c.H.R8L].@MAL.YJK
47 57 48 35 52 59 4c 5d 4f 4e 55 59 54 57 41 4a 5d    GWH5RYL]ONUYTWAJ]
51 62 7a 3c 4a 31 54 45 4d 37 55 59 54 4f 31 52 47    Qbz<J1TEM7UYTO1RG
30 57 48 35 50 41 54 5d 57 56 4d 41 54 4f 59 52 45    0WH5PAT]WVMATOYRE
51 57 48 68 78 02 -- -- -- -- -- -- -- -- -- -- --    QWHhx.